{
  "users": [
    {
      "id": 1,
      "email": "techie@email.com",
      "password": "techie",
      "createdAt": 12312312,
      "updatedAt": 12112312
    },
    {
      "email": "luynh@gmail.com",
      "password": "1212121",
      "createdAt": 1616657734163,
      "updatedAt": 1616657734163,
      "id": 2
    },
    {
      "email": "l99@gmail.com",
      "password": "1q1q1q",
      "createdAt": 1616685881244,
      "updatedAt": 1616685881244,
      "id": 3
    },
    {
      "email": "l2@gmail.com",
      "password": "0101001",
      "createdAt": 1616685908368,
      "updatedAt": 1616685908368,
      "id": 4
    }
  ],
  "todos": [
    {
      "id": 1,
      "title": "list1",
      "content": "asd",
      "descrp": "asd",
      "createdAt": 12312312,
      "updatedAt": 12112312,
      "userId": 1
    },
    {
      "id": 2,
      "title": "list1",
      "content": "asd",
      "descrp": "asd",
      "createdAt": 12312312,
      "updatedAt": 12112312,
      "userId": 1
    }
  ]
}